<?xml version="1.0" encoding="UTF-8"?>
<!DOCTYPE svg PUBLIC "-//W3C//DTD SVG 1.1//EN" "http://www.w3.org/Graphics/SVG/1.1/DTD/svg11.dtd">
<!-- Creator: CorelDRAW 2019 (64-Bit) -->
<svg xmlns="http://www.w3.org/2000/svg" xml:space="preserve" width="375px" height="375px" version="1.1" style="shape-rendering:geometricPrecision; text-rendering:geometricPrecision; image-rendering:optimizeQuality; fill-rule:evenodd; clip-rule:evenodd"
viewBox="0 0 375 375"
 xmlns:xlink="http://www.w3.org/1999/xlink"
 xmlns:xodm="http://www.corel.com/coreldraw/odm/2003">
 <defs>
  <style type="text/css">
   <![CDATA[
    .fil0 {fill:#00A99D;fill-rule:nonzero;fill-opacity:0.200000}
   ]]>
  </style>
 </defs>
 <g id="Capa_x0020_1">
  <metadata id="CorelCorpID_0Corel-Layer"/>
  <path class="fil0" d="M358.49 118.36c-30.62,-58.27 -98.24,-98.8 -176.81,-98.8 -70.12,0 -131.56,32.27 -165.72,80.64 18.11,25.65 28.57,55.81 28.57,88.1 0,32.29 -10.46,62.46 -28.57,88.1 34.16,48.37 95.6,80.64 165.72,80.64 78.57,0 146.19,-40.52 176.81,-98.79 -11.2,-21.32 -17.49,-44.99 -17.49,-69.95 0,-24.96 6.29,-48.63 17.49,-69.94z"/>
 </g>
</svg>
