<?xml version="1.0" encoding="utf-8"?>
<!-- Generator: Adobe Illustrator 26.0.3, SVG Export Plug-In . SVG Version: 6.00 Build 0)  -->
<svg version="1.1" id="Capa_1" xmlns="http://www.w3.org/2000/svg" xmlns:xlink="http://www.w3.org/1999/xlink" x="0px" y="0px"
	 viewBox="0 0 39 49.5" style="enable-background:new 0 0 39 49.5;" xml:space="preserve">
<style type="text/css">
	.st0{fill:none;}
	.st1{fill:#94AEDB;}
</style>
<rect x="-66.8" y="-11.2" class="st0" width="0.4" height="0.4"/>
<g>
	<path class="st1" d="M39,34c-1.4-2.7-2.2-5.9-2.2-9.1h0c0-10.1-8.2-18.3-18.3-18.3c-5.6,0-11,2.6-14.5,7.1C4,13.7,4.1,13.9,4.2,14
		c0,0,0,0,0,0C5,15.8,5.6,17.6,6,19.5c2.6-6.1,9.7-9.9,17.1-7.5c5.5,1.8,9,7.2,9,13.1c0,0.4,0,0.8,0,1.2c0,0,0,0.1,0,0.1
		c0,0.2,0,0.4,0,0.5c0,0.1,0,0.2,0,0.2c0,0.1,0,0.3,0,0.4c0,0.1,0,0.2,0,0.3c0,0.1,0,0.2,0,0.3c0,0.1,0,0.3,0.1,0.4c0,0,0,0.1,0,0.1
		c0.2,1,0.4,1.9,0.6,2.9c0,0,0,0,0,0c0.1,0.2,0.1,0.4,0.2,0.5c0,0,0,0.1,0,0.1c0.1,0.2,0.1,0.3,0.2,0.5c0,0,0,0.1,0,0.1
		c0.1,0.2,0.1,0.3,0.2,0.5c0,0,0,0.1,0,0.1c0.1,0.3,0.2,0.5,0.3,0.8c0,0.1,0.1,0.2,0.1,0.3c0,0.1,0.1,0.2,0.1,0.3
		c0,0.1,0.1,0.2,0.1,0.3c0,0.1,0.1,0.2,0.1,0.3c0,0.1,0.1,0.2,0.1,0.3c0,0.1,0.1,0.2,0.2,0.3c0.1,0.1,0.1,0.2,0.2,0.3
		c0.2,0.4,0.5,0.8,0.7,1.2c0,0.1,0.1,0.1,0.1,0.2c0.1,0.1,0.2,0.3,0.3,0.4c0,0,0,0,0,0.1c0.3,0.5,0.6,1,1,1.4c0,0,0,0,0,0
		c0.6,0.8,1.3,1.6,2,2.4"/>
	<path class="st1" d="M0,41.1c4.5,5.1,11.1,8.3,18.4,8.3c6.9,0,13.4-2.9,18.1-7.9c-0.7-0.8-1.4-1.7-1.9-2.7c0,0,0,0,0,0
		c-0.1-0.2-0.2-0.3-0.3-0.5c0,0-0.1-0.1-0.1-0.1c-0.1-0.2-0.3-0.5-0.4-0.7c-3.8,4.5-9.4,7.1-15.3,7.1C10.2,44.6,3,39.5,0,32.3"/>
	<path class="st1" d="M0,22.5c0.1,0.7,0.1,1.4,0.1,2.1C0.1,34.7,8.3,43,18.5,43c5.6,0,11-2.6,14.5-7.1c0,0,0,0,0,0
		c0-0.1-0.1-0.2-0.1-0.3c-0.1-0.1-0.1-0.2-0.2-0.3c0-0.1-0.1-0.2-0.1-0.3c0-0.1-0.1-0.2-0.1-0.3c-0.1-0.3-0.2-0.5-0.3-0.8
		c0,0,0-0.1,0-0.1c-0.1-0.2-0.1-0.3-0.2-0.5c0,0,0-0.1,0-0.1c-0.1-0.2-0.1-0.4-0.2-0.5c0,0,0-0.1,0-0.1c-0.1-0.2-0.1-0.4-0.2-0.6
		c0,0,0,0,0,0c-0.2-0.6-0.3-1.2-0.5-1.8c-2.1,4.8-6.9,8.2-12.5,8.2c-7.5,0-13.6-6.1-13.6-13.6c0-0.2,0-0.5,0-0.7c0-0.1,0-0.2,0-0.3
		c0-0.1,0-0.2,0-0.4c0-0.1,0-0.3,0-0.4c0-0.1,0-0.2,0-0.2c0-0.2,0-0.3,0-0.5c0,0,0-0.1,0-0.1c0-0.2,0-0.4-0.1-0.6c0,0,0,0,0,0
		c-0.3-2.7-1.1-5.2-2.2-7.5c0,0,0,0,0-0.1c-0.1-0.2-0.2-0.3-0.2-0.5c0,0,0-0.1,0-0.1C1.5,12.1,0.8,11,0,10"/>
	<path class="st1" d="M39,11.1c-0.2-0.4-0.5-0.7-0.7-1c0,0,0,0,0,0c-4.5-6-11.7-9.9-19.8-9.9C11.6,0.1,5.1,3,0.4,8
		c1,1.3,2,2.6,2.8,4c3.8-4.5,9.4-7.1,15.3-7.1c11,0,20,9,20,20h0c0,1.6,0.2,3.1,0.6,4.5"/>
	<path class="st1" d="M39,10.9"/>
</g>
</svg>
